Log started Thu Apr 14 08:59:32 2022
------------------------------------
08:59:32.380 (0)	State xml: <s lib="ProfilerCCCD" wf="ProfilerCCCD" log_time="y" log_timediff="y" log_threadproc="n" log_override="y" log_reflush="n" service_log="5" action_log_level="0" batch_log="y" script_reload="y" dco_reload="y" tprofile="PageID"><data id="2:rrs:save-unfinished-dco" v="yes" /></s>
08:59:32.380 (0)	Workflow "ProfilerCCCD" paths: runtime="C:\Datacap\ProfilerCCCD\batches\"; process="C:\Datacap\ProfilerCCCD\dco_ProfilerCCCD\"; setup dco="C:\Datacap\ProfilerCCCD\dco_ProfilerCCCD\ProfilerCCCD.xml"; runtime dco="C:\Datacap\ProfilerCCCD\batches\20220414.000001\PageID.xml";
08:59:32.380 (0)	script:init [m0x=ac3cd94]
08:59:32.386 (0)	/script:init
08:59:32.386 (0)	add object [id="dco"] to script
08:59:32.386 (0)	/add
08:59:32.386 (0)	add object [id="DCLogX"] to script
08:59:32.386 (0)	/add
08:59:32.386 (0)	add object [id="Pilot"] to script
08:59:32.386 (0)	/add
08:59:32.386 (0)	add object [id="Applications"] to script
08:59:32.386 (0)	/add
08:59:32.386 (0)	add object [id="Application"] to script
08:59:32.386 (0)	/add
08:59:32.386 (0)	add object [id="RRState"] to script
08:59:32.386 (0)	/add
08:59:32.386 (0)	add object [id="RRError"] to script
08:59:32.386 (0)	/add
08:59:32.386 (0)	execute statement On Process Start
08:59:32.386 (0)	   nothing to exec
08:59:32.387 (0)	/execute statement On Process Start
08:59:32.387 (0)	rrs execute: mode="debug"(2) flowmode="run"(3)
08:59:32.387 (0)	ruleset:
08:59:32.389 (0)	   Loaded dcomap.open:
08:59:32.389 (0)	   Adding rule dco map: [P=Other] for rule [2]
key: [P.Other] for rule: [2]

08:59:32.389 (0)	   Loaded dcomap.close:
08:59:32.389 (0)	   Looked up map for current dco: dco tag:[B]; dco type:[ProfilerCCCD]; base:[];
did not match [B.ProfilerCCCD]
did not match [.ProfilerCCCD]
looked up DCO object type map
map for DCO object type [0] is blank
*(star) was not specified
did not find matches
08:59:32.389 (0)	   execute statement On Ruleset Start
08:59:32.389 (0)	      nothing to exec
08:59:32.389 (0)	   /execute statement On Ruleset Start
08:59:32.389 (0)	   ruleset name="PageID" id="2" target object="B" target id="20220414.000001" target type="ProfilerCCCD"
08:59:32.389 (0)	   dco open tag="B" id="20220414.000001" type="ProfilerCCCD" progress="0"
08:59:32.389 (0)	      Looked up map for current dco: dco tag:[B]; dco type:[ProfilerCCCD]; base:[];
did not match [B.ProfilerCCCD]
did not match [.ProfilerCCCD]
looked up DCO object type map
matched DCO object type[0] to rule [1]

08:59:32.389 (0)	      rule "(B) Open"
08:59:32.390 (0)	         result 0[x0] = true
08:59:32.390 (0)	         execute statement On Rule Start
08:59:32.390 (0)	            nothing to exec
08:59:32.390 (0)	         /execute statement On Rule Start
08:59:32.390 (0)	         func "Set Fingerprint Params"
08:59:32.390 (0)	            execute statement On Function Start
08:59:32.390 (0)	               nothing to exec
08:59:32.390 (0)	            /execute statement On Function Start
08:59:32.390 (0)	            calling action SetFingerprintDir (str="@APPPATH(fingerprint)") on B:20220414.000001
08:59:32.390 (0)	               no accessible DLL version of RRX "c:\datacap\profilercccd\dco_profilercccd\rules\autodoc.dll"; errno:2 - No such file or directory; doserrno:2 - No such file or directory
08:59:32.390 (0)	               no accessible version of RRX "c:\datacap\profilercccd\dco_profilercccd\rules\autodoc.rrx"; errno:2 - No such file or directory; doserrno:2 - No such file or directory
08:59:32.748 (359)	               Loading RRX from DLL "c:\datacap\rrs\autodoc.dll"
08:59:32.750 (0)	               load rrx code: "c:\datacap\rrs\autodoc.dll"
08:59:32.751 (0)	                  no accessible DLL version of RRX "c:\datacap\profilercccd\dco_profilercccd\rules\rrunner.dll"; errno:2 - No such file or directory; doserrno:2 - No such file or directory
08:59:32.751 (0)	                  no accessible version of RRX "c:\datacap\profilercccd\dco_profilercccd\rules\rrunner.rrx"; errno:2 - No such file or directory; doserrno:2 - No such file or directory
08:59:32.788 (47)	                  Loading RRX from DLL "c:\datacap\rrs\rrunner.dll"
08:59:32.791 (0)	                  load rrx code: "c:\datacap\rrs\rrunner.dll"
08:59:32.807 (16)	 Smartparameter Object created
08:59:32.830 (16)	 Datacap Global Strings Object created
08:59:32.832 (0)	 Datacap Global Dates Object created
08:59:32.834 (15)	 Datacap Global Currency Object created
08:59:32.836 (0)	 Datacap Global Locale Object created
08:59:32.838 (0)	 Datacap Global Bidi Object created
08:59:33.2 (156)	 RRLogic Object created
08:59:33.2 (0)	 rrunner: loading file v. 9.1.8.155
08:59:33.2 (0)	 Current Locale: '1033 (en-US)' English (United States)
08:59:33.4 (0)	 Global FileMgr Object created
08:59:33.6 (16)	 Global ImageCtrl Object created
08:59:33.8 (0)	 Global oConn Object created
08:59:33.9 (0)	 Global CCOCreator Object created
08:59:33.11 (0)	 Global CCO Object created
08:59:33.12 (0)	 Pilot XML:
<B id="20220414.000001"><P n="BatchDir">C:\Datacap\ProfilerCCCD\batches\20220414.000001</P><P n="AppName"></P><P n="Workflow"></P><P n="DCOFile">C:\Datacap\ProfilerCCCD\batches\20220414.000001\PageID.xml</P><P n="Operator">admin</P><P n="Station">1</P><P n="JobName">ClaimFrom Job</P><P n="TaskName">PageID</P><P n="Priority">5</P><P n="PagesInBatch">0</P><P n="DocsInBatch">0</P><P n="ExpectedPages">0</P><P n="ExpectedDocs">0</P><P n="AdjustedPages">0</P><P n="AdjustedDocs">0</P><P n="ProjectPath">C:\Datacap\ProfilerCCCD\dco_ProfilerCCCD\Paths.ini</P><V n="HR_LOCALE">vi-VN</V></B>


08:59:33.12 (0)	 InitPage
08:59:33.12 (0)	 Retrieving locale setting from Application Service
08:59:33.12 (0)	 Looking for AppSvc Workflow Name key: '*/dco_ProfilerCCCD/locale'
08:59:33.13 (0)	 Looking for AppSvc Application Name key: '*/dco_ProfilerCCCD/locale'
08:59:33.13 (0)	 Looking for AppSvc General key: '*/locale'
08:59:33.13 (0)	 No locale setting found in the Application Service.
08:59:33.13 (0)	 Retrieving Fingerprint DB Connection string from Application Service
08:59:33.13 (0)	 Looking for AppSvc Workflow Name key: '*/dco_ProfilerCCCD/fingerprintconn:cs'
08:59:33.14 (0)	 AppSvc Workflow fingerprintconn found.
08:59:33.19 (0)	                  /load
08:59:33.25 (16)	 Autodoc version 9.1.8.100
08:59:33.27 (0)	 DocumentLayout Object created
08:59:33.28 (0)	C:\Datacap\RRS\DocumentLayout.dll. AssemblyVersion: 9.1.8.0
08:59:33.28 (0)	AssemblyFileVersion: 9.1.8.36.
08:59:33.29 (0)	               /load
08:59:33.29 (0)	               execute statement On Action Start
08:59:33.29 (0)	                  executing code:
08:59:33.29 (0)	                  Call OnActionStart()
08:59:33.29 (0)	 Current Locale: '1033 (en-US)' English (United States)
08:59:33.29 (0)	               /execute statement On Action Start
08:59:33.32 (0)	 Use global FP connection. Provider=MSDASQL
08:59:33.32 (0)	 Retrieving Fingerprint DB Connection string from Application Service
08:59:33.32 (0)	 Looking for AppSvc Workflow Name key: '*/dco_ProfilerCCCD/fingerprintconn:cs'...
08:59:33.32 (0)	     AppSvc Workflow Name key found.
08:59:33.32 (0)	 Decrypt FP conn
08:59:33.48 (15)	 Opened FP connection. Provider=Microsoft.Jet.OLEDB.4.0
08:59:33.48 (0)	 Retrieving Fingerprint DB Root Directory string from Application Service
08:59:33.49 (0)	 AppSvc Root Fingerprint Directory: 'C:\Datacap\ProfilerCCCD\fingerprint'
08:59:33.49 (0)	DCSmart Metaword sArgument: @APPPATH(fingerprint)
08:59:33.49 (0)	1 Smart Parameter element found
08:59:33.49 (0)	Parsing Smart Parameter element {0} value: "@APPPATH(fingerprint)"
08:59:33.49 (0)	matched '@' index 0
08:59:33.49 (0)	sArg: @APPPATH.
08:59:33.49 (0)	@APPPATH key root value: 'fingerprint'
08:59:33.49 (0)	@APPPATH looking for workflow key: '*/dco_ProfilerCCCD/fingerprint'
08:59:33.50 (0)	   workflow key NOT found.
08:59:33.50 (0)	@APPPATH looking for appname key: '*/dco_ProfilerCCCD/fingerprint'
08:59:33.50 (0)	   appname key NOT found.
08:59:33.50 (0)	@APPPATH looking for general key: '*/fingerprint'
08:59:33.51 (0)	   general key found: 'C:\Datacap\ProfilerCCCD\fingerprint'
08:59:33.51 (0)	Smart return: 'C:\Datacap\ProfilerCCCD\fingerprint'
08:59:33.52 (16)	               result 0[x0] = true
08:59:33.52 (0)	               action returned true
08:59:33.52 (0)	               execute statement On Action True
08:59:33.52 (0)	                  executing code:
08:59:33.52 (0)	                  Call OnActionSuccess()
08:59:33.52 (0)	 Action esec='0.02344'
08:59:33.52 (0)	               /execute statement On Action True
08:59:33.52 (0)	            /action
08:59:33.52 (0)	            calling action SetFingerprintSearchArea (str="0.0",str="1.0") on B:20220414.000001
08:59:33.52 (0)	               execute statement On Action Start
08:59:33.52 (0)	                  executing code:
08:59:33.53 (0)	                  Call OnActionStart()
08:59:33.53 (0)	 Current Locale: '1033 (en-US)' English (United States)
08:59:33.53 (0)	               /execute statement On Action Start
08:59:33.53 (0)	               Loading Datacap.Libraries.AutomaticDocumentFingerprinting.Actions as assembly from: C:\Datacap\ProfilerCCCD\dco_ProfilerCCCD\rules\
08:59:33.53 (0)	               Couldn't load assembly: C:\Datacap\ProfilerCCCD\dco_ProfilerCCCD\rules\Datacap.Libraries.AutomaticDocumentFingerprinting.dll
08:59:33.54 (0)	               Loading Datacap.Libraries.AutomaticDocumentFingerprinting.Actions as assembly from: C:\Datacap\RRS\
08:59:33.54 (0)	               Couldn't load assembly: C:\Datacap\RRS\Datacap.Libraries.AutomaticDocumentFingerprinting.dll
08:59:33.54 (0)	               Loading Datacap.Libraries.AutomaticDocumentFingerprinting.Actions as COM client
08:59:33.174 (109)	C:\Datacap\dcshared\NET\AutomaticDocumentFingerprinting.dll. AssemblyVersion: 9.1.8.0. AssemblyFileVersion: 9.1.8.12 64Bit: False
08:59:33.211 (47)	               call "Datacap.Libraries.AutomaticDocumentFingerprinting.Actions->Datacap.Libraries.AutomaticDocumentFingerprinting.Actions->SetFingerprintSearchArea"
08:59:33.213 (0)	Retrieving Fingerprint DB Connection from App Service
08:59:33.213 (0)	Looking for AppSvc Workflow Name key: '*/dco_ProfilerCCCD/fingerprintconn:cs'
08:59:33.213 (0)	 AppSvc Workflow name key: '*/dco_ProfilerCCCD/fingerprintconn:cs
08:59:33.213 (0)	DCSmart Metaword sArgument: [secured]0199eb181d413ae3dc8239224299ab01b746a45dbc90f2bde87545b1ebfc8b55ae3e951e1772e3f58a9e5a00ac5546202de67324af4c046bf0e69de61965c8a4c55b16902c99593348a4a3d001e1f87277e8e5f03696e8c70ef918e2cda252564b451da97a78d7a90a85899c109ad6fe8759d87d0615c56b9b6fe6278bd700494e9846709c62237e0299bc671a7f31d128c23e48508c95d4e5abb1a51569b71f76e73227da69f8c4259315a0a885158b107ffae32af8d70aa474a936b4ebfc78a13a9623c40cd5370fc64bb64d799cd273942e9a7dafd87cfa545198157abad489[/secured]
08:59:33.213 (0)	Smart return: ''
08:59:33.228 (16)	Opened FP connection. Provider=Microsoft.Jet.OLEDB.4.0
08:59:33.228 (0)	DCSmart Metaword sArgument: 0.0
08:59:33.228 (0)	Smart return: ''
08:59:33.228 (0)	DCSmart Metaword sArgument: 1.0
08:59:33.228 (0)	Smart return: ''
08:59:33.228 (0)	ID=20220414.000001 Current Locale: 'en-US'
08:59:33.228 (0)	ID=20220414.000001 Current Locale: 'en-US'
08:59:33.228 (0)	ID=20220414.000001 Current Locale: 'en-US'
08:59:33.228 (0)	ID=20220414.000001 Current Locale: 'en-US'
08:59:33.228 (0)	Top: '0' Bottom: '1'
08:59:33.228 (0)	                  result 0[x0] = true
08:59:33.228 (0)	               /call
08:59:33.228 (0)	               action returned true
08:59:33.228 (0)	               execute statement On Action True
08:59:33.228 (0)	                  executing code:
08:59:33.229 (0)	                  Call OnActionSuccess()
08:59:33.229 (0)	 Action esec='0.17578'
08:59:33.229 (0)	               /execute statement On Action True
08:59:33.229 (0)	            /action
08:59:33.229 (0)	            calling action SetMinimumMatchingTolerance (str="1.0") on B:20220414.000001
08:59:33.229 (0)	               execute statement On Action Start
08:59:33.229 (0)	                  executing code:
08:59:33.229 (0)	                  Call OnActionStart()
08:59:33.229 (0)	 Current Locale: '1033 (en-US)' English (United States)
08:59:33.229 (0)	               /execute statement On Action Start
08:59:33.229 (0)	               call "Datacap.Libraries.AutomaticDocumentFingerprinting.Actions->Datacap.Libraries.AutomaticDocumentFingerprinting.Actions->SetMinimumMatchingTolerance"
08:59:33.229 (0)	DCSmart Metaword sArgument: 1.0
08:59:33.229 (0)	Smart return: ''
08:59:33.229 (0)	Raw minimum: '1.0'
08:59:33.229 (0)	ID=20220414.000001 Current Locale: 'en-US'
08:59:33.230 (0)	Error: value '1 must be between 0 and .99
08:59:33.230 (0)	                  result 1[1] = false
08:59:33.230 (0)	               /call
08:59:33.230 (0)	               action returned false
08:59:33.230 (0)	               execute statement On Action False
08:59:33.230 (0)	                  executing code:
08:59:33.230 (0)	                  Call OnActionFailure()
08:59:33.230 (0)	 Action esec='0.00000'
08:59:33.230 (0)	               /execute statement On Action False
08:59:33.230 (0)	            /action
08:59:33.230 (0)	            func result: "false"
08:59:33.230 (0)	            execute statement On Function False
08:59:33.230 (0)	               executing code:
08:59:33.230 (0)	               Call OnFunctionEnd()
08:59:33.230 (0)	 Function esec='0.21680'
08:59:33.230 (0)	            /execute statement On Function False
08:59:33.230 (0)	         /func
08:59:33.230 (0)	         execute statement On Rule False
08:59:33.230 (0)	            executing code:
08:59:33.230 (0)	            Call StatCounter():Call OnRuleEnd():Call RRLogicOnRuleEnd()
08:59:33.230 (0)	 DocCount 0,  PageCount 0
08:59:33.231 (0)	 rrRuleEnd OVERRIDEABLE:True
08:59:33.231 (0)	 Rule esec='0.21875'
08:59:33.254 (15)	C:\Datacap\dcshared\NET\RuleRunnerLogic.dll. AssemblyVersion: 9.1.8.0. AssemblyFileVersion: 9.1.8.9 64Bit: True
08:59:33.280 (32)	nDefaultRtn default: 1
08:59:33.283 (0)	cOnRuleEnd: OVERRIDEABLE:True
08:59:33.283 (0)	         /execute statement On Rule False
08:59:33.284 (0)	         execute statement Set CurrentObj to Nothing
08:59:33.284 (0)	            executing code:
08:59:33.284 (0)	            Call set_CDCOnothing()
08:59:33.284 (0)	         /execute statement Set CurrentObj to Nothing
08:59:33.284 (0)	         rule result: "false"
08:59:33.284 (0)	      /rule
08:59:33.284 (0)	   /dco
08:59:33.284 (0)	   dco open tag="P" id="TM000001" type="Other" progress="0"
08:59:33.284 (0)	      Looked up map for current dco: dco tag:[P]; dco type:[Other]; base:[];
matched [P.Other] to rule [2]

08:59:33.284 (0)	      rule "(P) Open"
08:59:33.284 (0)	         result 0[x0] = true
08:59:33.425 (140)	         execute statement On Rule Start
08:59:33.425 (0)	            executing code:
08:59:33.425 (0)	            Call OnRuleStart()
08:59:33.425 (0)	 InitPage
08:59:33.425 (0)	         /execute statement On Rule Start
08:59:33.425 (0)	         func "Classify"
08:59:33.425 (0)	            execute statement On Function Start
08:59:33.425 (0)	               executing code:
08:59:33.425 (0)	               g_Ftmr=cdbl(Timer)
08:59:33.425 (0)	            /execute statement On Function Start
08:59:33.426 (0)	            calling action SetImageDPIByWidth (str="6",str="300",str="False") on P:TM000001
08:59:33.426 (0)	               execute statement On Action Start
08:59:33.426 (0)	                  executing code:
08:59:33.426 (0)	                  Call OnActionStart()
08:59:33.426 (0)	 Current Locale: '1033 (en-US)' English (United States)
08:59:33.426 (0)	               /execute statement On Action Start
08:59:33.426 (0)	               Loading Datacap.Libraries.ImageUtilities.Actions as assembly from: C:\Datacap\ProfilerCCCD\dco_ProfilerCCCD\rules\
08:59:33.426 (16)	               Couldn't load assembly: C:\Datacap\ProfilerCCCD\dco_ProfilerCCCD\rules\Datacap.Libraries.ImageUtilities.dll
08:59:33.426 (0)	               Loading Datacap.Libraries.ImageUtilities.Actions as assembly from: C:\Datacap\RRS\
08:59:33.427 (0)	               Couldn't load assembly: C:\Datacap\RRS\Datacap.Libraries.ImageUtilities.dll
08:59:33.427 (0)	               Loading Datacap.Libraries.ImageUtilities.Actions as COM client
08:59:33.589 (156)	C:\Datacap\dcshared\NET\ImageUtilities.dll. AssemblyVersion: 9.1.8.0. AssemblyFileVersion: 9.1.8.3 64Bit: True
08:59:33.596 (0)	               call "Datacap.Libraries.ImageUtilities.Actions->Datacap.Libraries.ImageUtilities.Actions->SetImageDPIByWidth"
08:59:33.661 (63)	DCSmart Metaword sArgument: 6
08:59:33.661 (0)	Smart return: ''
08:59:33.661 (0)	DCSmart Metaword sArgument: 300
08:59:33.661 (0)	Smart return: ''
08:59:33.661 (15)	DCSmart Metaword sArgument: False
08:59:33.661 (0)	Smart return: ''
08:59:33.661 (0)	Input Physical ImageWidth: 6 ImageDPI: 300 Rescale: False
08:59:33.795 (125)	Actual Height: 548 Width: 857 DPIx: 200 DPIy: 200 PhysicalW: 4.285 PhysicalH: 2.74 Ratio: 2.10035
08:59:33.795 (0)	Image will not be resized
08:59:33.796 (0)	Adjusting DPI: 300 Width: 857 Height: 548 PhysicalW: 2.856667 PhysicalH: 1.826667
08:59:33.815 (16)	Saving file type: Png
08:59:34.383 (578)	Update complete
08:59:34.407 (16)	                  result 0[x0] = true
08:59:34.407 (0)	               /call
08:59:34.407 (0)	               action returned true
08:59:34.407 (0)	               execute statement On Action True
08:59:34.407 (0)	                  executing code:
08:59:34.407 (0)	                  Call OnActionSuccess()
08:59:34.407 (0)	 Action esec='0.98047'
08:59:34.407 (0)	               /execute statement On Action True
08:59:34.407 (0)	            /action
08:59:34.408 (0)	            calling action SetDCOType (str="Claim Page") on P:TM000001
08:59:34.408 (0)	               execute statement On Action Start
08:59:34.408 (0)	                  executing code:
08:59:34.408 (0)	                  Call OnActionStart()
08:59:34.408 (0)	 Current Locale: '1033 (en-US)' English (United States)
08:59:34.408 (0)	               /execute statement On Action Start
08:59:34.408 (0)	               Loading Datacap.Libraries.ApplicationObjects.Actions as assembly from: C:\Datacap\ProfilerCCCD\dco_ProfilerCCCD\rules\
08:59:34.409 (0)	               Couldn't load assembly: C:\Datacap\ProfilerCCCD\dco_ProfilerCCCD\rules\Datacap.Libraries.ApplicationObjects.dll
08:59:34.409 (0)	               Loading Datacap.Libraries.ApplicationObjects.Actions as assembly from: C:\Datacap\RRS\
08:59:34.410 (0)	               Couldn't load assembly: C:\Datacap\RRS\Datacap.Libraries.ApplicationObjects.dll
08:59:34.410 (0)	               Loading Datacap.Libraries.ApplicationObjects.Actions as COM client
08:59:34.598 (187)	C:\Datacap\dcshared\NET\ApplicationObjects.dll. AssemblyVersion: 9.1.9.0. AssemblyFileVersion: 9.1.9.10 64Bit: True
08:59:34.604 (16)	               call "Datacap.Libraries.ApplicationObjects.Actions->Datacap.Libraries.ApplicationObjects.Actions->SetDCOType"
08:59:34.656 (47)	DCSmart Metaword sArgument: Claim Page
08:59:34.656 (0)	Smart return: ''
08:59:34.661 (15)	ID: 'TM000001' Old Type: 'Other'  New Type: 'Claim Page' Status: 49
08:59:34.661 (0)	                  result 0[x0] = true
08:59:34.661 (0)	               /call
08:59:34.661 (0)	               action returned true
08:59:34.661 (0)	               execute statement On Action True
08:59:34.661 (0)	                  executing code:
08:59:34.661 (0)	                  Call OnActionSuccess()
08:59:34.661 (0)	 Action esec='0.25195'
08:59:34.661 (0)	               /execute statement On Action True
08:59:34.661 (0)	            /action
08:59:34.662 (0)	            calling action rrSet (str="Vietnamese",str="@P.y_lg") on P:TM000001
08:59:34.662 (0)	               execute statement On Action Start
08:59:34.662 (0)	                  executing code:
08:59:34.662 (0)	                  Call OnActionStart()
08:59:34.662 (0)	 Current Locale: '1033 (en-US)' English (United States)
08:59:34.662 (0)	               /execute statement On Action Start
08:59:34.662 (0)	               Loading Datacap.Libraries.RuleRunnerLogic.Actions as assembly from: C:\Datacap\ProfilerCCCD\dco_ProfilerCCCD\rules\
08:59:34.662 (0)	               Couldn't load assembly: C:\Datacap\ProfilerCCCD\dco_ProfilerCCCD\rules\Datacap.Libraries.RuleRunnerLogic.dll
08:59:34.663 (0)	               Loading Datacap.Libraries.RuleRunnerLogic.Actions as assembly from: C:\Datacap\RRS\
08:59:34.663 (0)	               Couldn't load assembly: C:\Datacap\RRS\Datacap.Libraries.RuleRunnerLogic.dll
08:59:34.663 (0)	               Loading Datacap.Libraries.RuleRunnerLogic.Actions as COM client
08:59:34.669 (0)	C:\Datacap\dcshared\NET\RuleRunnerLogic.dll. AssemblyVersion: 9.1.8.0. AssemblyFileVersion: 9.1.8.9 64Bit: True
08:59:34.673 (0)	               call "Datacap.Libraries.RuleRunnerLogic.Actions->Datacap.Libraries.RuleRunnerLogic.Actions->rrSet"
08:59:34.722 (47)	DCSmart Metaword sArgument: Vietnamese
08:59:34.723 (0)	Smart return: ''
08:59:34.726 (16)	DCOFindVar: looking for a variable in string: '@P.y_lg'
08:59:34.728 (0)	Detected a variable 'y_lg' in the search node value.
08:59:34.736 (0)	CurrentDCO Object ID: TM000001
08:59:34.736 (0)	Calling Object ID: TM000001
08:59:34.738 (0)	Eval Node '@P.y_lg'
08:59:34.738 (0)	A Variable value is in the node list! (Remove)
08:59:34.738 (0)	New Node List:''
08:59:34.739 (15)	DCONav returning node having ID of:'TM000001'
08:59:34.741 (0)	Setting 'TM000001.y_lg' value to 'Vietnamese'.
08:59:34.741 (0)	                  result 0[x0] = true
08:59:34.741 (0)	               /call
08:59:34.741 (0)	               action returned true
08:59:34.741 (0)	               execute statement On Action True
08:59:34.741 (0)	                  executing code:
08:59:34.741 (0)	                  Call OnActionSuccess()
08:59:34.741 (0)	 Action esec='0.08008'
08:59:34.741 (0)	               /execute statement On Action True
08:59:34.741 (0)	            /action
08:59:34.741 (0)	            calling action RecognizePageOCR_A () on P:TM000001
08:59:34.741 (0)	               execute statement On Action Start
08:59:34.741 (0)	                  executing code:
08:59:34.741 (0)	                  Call OnActionStart()
08:59:34.742 (0)	 Current Locale: '1033 (en-US)' English (United States)
08:59:34.742 (0)	               /execute statement On Action Start
08:59:34.742 (0)	               Loading RecognitionOCRA.OCRAActions as assembly from: C:\Datacap\ProfilerCCCD\dco_ProfilerCCCD\rules\
08:59:34.742 (0)	               Couldn't load assembly: C:\Datacap\ProfilerCCCD\dco_ProfilerCCCD\rules\RecognitionOCRA.dll
08:59:34.742 (0)	               Loading RecognitionOCRA.OCRAActions as assembly from: C:\Datacap\RRS\
08:59:34.827 (79)	C:\Datacap\RRS\RecognitionOCRA.dll. AssemblyVersion: 9.1.7.0. AssemblyFileVersion: 9.1.9.3.
08:59:34.892 (62)	               call "RecognitionOCRA.OCRAActions->RecognitionOCRA.OCRAActions->RecognizePageOCR_A"
08:59:34.892 (0)	Using wrapper Path: C:\Datacap\dcshared\OCRA\bin\Datacap.Libraries.Abbyy.dll
08:59:34.976 (94)	Setup interfaces
08:59:34.977 (0)	Level=2
08:59:34.977 (0)	OCR/A AssemblyDirectory: C:\Datacap\dcshared\OCRA\bin
08:59:34.977 (0)	OCRA DLL Version: 9.1.9.98
08:59:34.977 (0)	Engine load mode is 0
08:59:34.977 (0)	Found all engine entry points.
08:59:36.152 (1172)	OCRA Engine Version: 12.5.6.0
08:59:36.152 (0)	Datacap.Libraries.Abbyy.dll FileAssemblyVersion: 9.1.9.98
08:59:36.152 (0)	OCRA Engine Version: 12.5.6.0
08:59:36.183 (31)	 XResoO: 300, YResO: 300, AutoOverwrite: True, OverwriteRes: False
08:59:36.183 (0)	 Prepare Deskew: True, Prepare SkewMode: 16, EContrast: False, PhotoMode: PPM_Auto
08:59:36.183 (0)	 RasterizeFT: False Rotation: RT_NoRotation FB: False AutoOverwrite: True DiscardColor: False
08:59:36.344 (156)	----- OCR/A page recognition of: c:\datacap\profilercccd\batches\20220414.000001\tm000001.png ----- Type: Claim Page ID: TM000001
08:59:36.345 (0)	OCRing 100% of the page. L=0 T=0 R=857 B=548
08:59:36.616 (281)	Added new region block
08:59:36.616 (0)	Number of blocks 1
08:59:36.931 (313)	Maximum number of pages for in memory processing is 500
08:59:36.931 (0)	Processing in memory.
08:59:36.931 (0)	Pool: 64, Policy: PFP_Auto, LowMode: False
08:59:36.937 (0)	Language set to Vietnamese
08:59:36.937 (0)	language parameters: TextLangInternal: Vietnamese, TextTypes: 1, WriteStyle: WS_Common, OneWordPerLine: False
08:59:36.937 (0)	PagePPP Rotate/Correct = True, SkewMode: 16. pdfGeomCorrect = TSPV_Auto, ApplySigmaFilter: TSPV_Auto, CorrectShadows: TSPV_Auto, Page Deskew: TSPV_Yes, pdfResCorrect = TSPV_Auto, Crop = TSPV_Auto
08:59:36.937 (0)	DetectTextOnPictures: True, EnableAgressiveTextExt: True, RemoveGarbage: False, DetectPorusText: True, DetectMatrixPrinter: True, SourceContentReuseMode: CRM_Auto
08:59:36.937 (0)	FastMode = False, DetectFontFormattingAtPageLevel: False, SplitOnlyBySeparators: False, SingleLinePerCell: False, DetectCellsOrientation: True, LowResolutionMode: False
08:59:36.937 (0)	DetectTables: True, DetectPictures: True, EnableTextExtractionMode: False, AggressiveTableDetection: True, EnableExhaustiveAnalysisMode: False, TextTypes: 1, ProhibitCol: False
08:59:45.409 (8469)	All field recognition Time: (s) 8.469
08:59:45.409 (0)	tm000001.png Modified: True. SkewCorrected: True. Rotation: RT_NoRotation, Negative: False
08:59:45.409 (0)	Image Format: IFF_PngColorPng. Xres: 300. Yres: 300
08:59:45.412 (15)	Created backup file: c:\datacap\profilercccd\batches\20220414.000001\tm000001.ocra.png
08:59:45.412 (0)	Saving color image: 'c:\datacap\profilercccd\batches\20220414.000001\tm000001.png'
08:59:45.756 (344)	Worker result: True
08:59:45.756 (0)	Normalizing
08:59:45.757 (0)	C:\Datacap\RRS\SharedRecognitionTools.dll. AssemblyVersion: 9.1.8.0. AssemblyFileVersion: 9.1.8.46. 64Bit: False
08:59:45.873 (109)	Start Normalization
08:59:45.898 (32)	Image does not contain information for ImageWidth
08:59:45.898 (0)	Image does not contain information for ImageHeight
08:59:45.898 (0)	Image does not contain information for CompressionType
08:59:45.898 (0)	Image does not contain information for BitsPerSample
08:59:45.898 (0)	Image does not contain information for SamplesPerPixel
08:59:45.898 (0)	xDPI=300 yDPI=300 width=0 height=0 BPS=0 SPP=0 BPP=0 black=-1 compression: None
08:59:45.898 (0)	MaxHt TMM = 64 yDPI = 300 MaxHt PX = 75.5905511811024
08:59:45.901 (0)	CCO2XML
08:59:45.901 (0)	Getting Count
08:59:45.902 (0)	Loading
08:59:45.903 (0)	LoadedXML
08:59:45.903 (0)	Average Height for all 100 words is 17.72
08:59:45.903 (0)	SortXML2
08:59:45.910 (0)	Splitting
08:59:45.911 (0)	hr_bidi ''
08:59:45.919 (15)	Rejoin
08:59:45.919 (0)	ReJoin hr_bidi 
08:59:45.923 (0)	Processed 637 words.
08:59:45.923 (0)	RecreateCCO
08:59:45.923 (0)	SharedRecognitionTools RecreateCco: creating _ccoCreator.Create
08:59:45.930 (16)	Save new CCO to c:\datacap\profilercccd\batches\20220414.000001\tm000001.cco
08:59:45.932 (0)	saved
08:59:45.932 (0)	Created
08:59:45.933 (0)	OReleased
08:59:46.109 (172)	                  result 0[x0] = true
08:59:46.109 (0)	               /call
08:59:46.109 (0)	               action returned true
08:59:46.109 (0)	               execute statement On Action True
08:59:46.109 (0)	                  executing code:
08:59:46.109 (0)	                  gbLoadedCCO = "ForceCCOReload":Call InitPage():Call OnActionSuccess()
08:59:46.109 (0)	 InitPage
08:59:46.109 (0)	 VBSCCOReload
08:59:46.111 (0)	 Action esec='11.37109'
08:59:46.111 (0)	               /execute statement On Action True
08:59:46.111 (0)	            /action
08:59:46.111 (0)	            skip disabled action "RecognizePageOCR_S"
08:59:46.111 (0)	            calling action FindFingerprint (str="false") on P:TM000001
08:59:46.111 (0)	               execute statement On Action Start
08:59:46.111 (0)	                  executing code:
08:59:46.111 (0)	                  Call OnActionStart()
08:59:46.111 (0)	 Current Locale: '1033 (en-US)' English (United States)
08:59:46.111 (0)	               /execute statement On Action Start
08:59:46.111 (0)	 Autodoc 
08:59:46.113 (0)	DCSmart Metaword sArgument: false
08:59:46.113 (0)	Smart return: ''
08:59:46.113 (0)	 Param: 'false'
08:59:46.114 (15)	 ----- FindFingerprint of: c:\datacap\profilercccd\batches\20220414.000001\tm000001.png -----
08:59:46.114 (0)	 strCCOFile :c:\datacap\profilercccd\batches\20220414.000001\tm000001.cco
08:59:46.116 (0)	 Updating SearchArea. Top: 0; Bottom: 0.5
08:59:46.119 (0)	 Loading Fingerprints...
08:59:46.125 (0)	 Attempting to load Fingerprints
08:59:46.125 (0)	 fileName 555.cco
08:59:46.125 (0)	 Updated path C:\Datacap\ProfilerCCCD\fingerprint\555.cco
08:59:46.127 (0)	 fileName 601.cco
08:59:46.127 (0)	 Updated path C:\Datacap\ProfilerCCCD\fingerprint\601.cco
08:59:46.129 (0)	 Loading time: 0.0098
08:59:46.131 (16)	 strCCOFile :c:\datacap\profilercccd\batches\20220414.000001\tm000001.cco
08:59:46.131 (0)	 Matching with the local Fingerprint Service...
08:59:46.133 (0)	 Fingerprint: 601; index = 2; Confidence = 0.9264812
08:59:46.133 (0)	 Match existing Fingerprint: 601; Image: c:\datacap\profilercccd\batches\20220414.000001\tm000001.png
08:59:46.139 (0)	 Fingerprint Matching Time: 0.0098
08:59:46.141 (0)	 FindFingerprint returns True
08:59:46.141 (0)	               result 0[x0] = true
08:59:46.141 (0)	               action returned true
08:59:46.141 (0)	               execute statement On Action True
08:59:46.141 (0)	                  executing code:
08:59:46.141 (0)	                  Call OnActionSuccess()
08:59:46.141 (0)	 Action esec='0.02930'
08:59:46.141 (0)	               /execute statement On Action True
08:59:46.141 (0)	            /action
08:59:46.141 (0)	            func result: "true"
08:59:46.141 (0)	            execute statement On Function True
08:59:46.141 (0)	               executing code:
08:59:46.141 (0)	               Call OnFunctionEnd()
08:59:46.141 (0)	 Function esec='12.71484'
08:59:46.141 (0)	            /execute statement On Function True
08:59:46.141 (0)	         /func
08:59:46.141 (0)	         execute statement On Rule True
08:59:46.141 (0)	            executing code:
08:59:46.141 (0)	            Call StatCounter():Call OnRuleEnd():Call RRLogicOnRuleEnd()
08:59:46.142 (0)	 DocCount 0,  PageCount 1
08:59:46.143 (0)	 rrRuleEnd OVERRIDEABLE:True
08:59:46.143 (0)	 Rule esec='12.71875'
08:59:46.179 (47)	nDefaultRtn default: 1
08:59:46.179 (0)	cOnRuleEnd: OVERRIDEABLE:True
08:59:46.181 (0)	         /execute statement On Rule True
08:59:46.181 (0)	         execute statement Set CurrentObj to Nothing
08:59:46.181 (0)	            executing code:
08:59:46.181 (0)	            Call set_CDCOnothing()
08:59:46.181 (0)	         /execute statement Set CurrentObj to Nothing
08:59:46.181 (0)	         rule result: "true"
08:59:46.181 (0)	      /rule
08:59:46.181 (0)	   /dco
08:59:46.181 (0)	   dco close tag="P" id="TM000001" type="Other" progress="2"
08:59:46.181 (0)	      Looked up map for current dco: dco tag:[P]; dco type:[Other]; base:[];
did not match [P.Other]
did not match [.Other]
looked up DCO object type map
map for DCO object type [2] is blank
*(star) was not specified
did not find matches
08:59:46.181 (0)	      skip: current DCO has no associated rules from this ruleset
08:59:46.181 (0)	   /dco
08:59:46.182 (0)	   dco close tag="B" id="20220414.000001" type="ProfilerCCCD" progress="2"
08:59:46.182 (0)	      Looked up map for current dco: dco tag:[B]; dco type:[ProfilerCCCD]; base:[];
did not match [B.ProfilerCCCD]
did not match [.ProfilerCCCD]
looked up DCO object type map
map for DCO object type [0] is blank
*(star) was not specified
did not find matches
08:59:46.182 (0)	      skip: current DCO has no associated rules from this ruleset
08:59:46.182 (0)	   /dco
08:59:46.182 (0)	   stop: finished for target
08:59:46.182 (0)	   execute statement On Ruleset End
08:59:46.182 (0)	      executing code:
08:59:46.182 (0)	      Call OnRuleSetEnd()
08:59:46.184 (0)	 RuleSet finished with TaskStatus '2'
08:59:46.184 (0)	 Total Ruleset Action   esec:'12.91211'
08:59:46.184 (0)	 Total Ruleset Function esec:'12.93164'
08:59:46.184 (0)	 Total Ruleset Rule     esec:'12.93750'
08:59:46.184 (0)	 OnRuleSetEnd Pilot XML:
<B id="20220414.000001"><P n="BatchDir">C:\Datacap\ProfilerCCCD\batches\20220414.000001</P><P n="AppName"></P><P n="Workflow"></P><P n="DCOFile">C:\Datacap\ProfilerCCCD\batches\20220414.000001\PageID.xml</P><P n="Operator">admin</P><P n="Station">1</P><P n="JobName">ClaimFrom Job</P><P n="TaskName">PageID</P><P n="Priority">5</P><P n="PagesInBatch">0</P><P n="DocsInBatch">0</P><P n="ExpectedPages">0</P><P n="ExpectedDocs">0</P><P n="AdjustedPages">0</P><P n="AdjustedDocs">0</P><P n="ProjectPath">C:\Datacap\ProfilerCCCD\dco_ProfilerCCCD\Paths.ini</P><V n="HR_LOCALE">vi-VN</V></B>


08:59:46.213 (31)	   /execute statement On Ruleset End
08:59:46.213 (0)	/ruleset
08:59:46.213 (0)	ruleset:
08:59:46.214 (0)	   Loaded dcomap.open:
08:59:46.214 (0)	   Adding rule dco map: [P] for rule [2]
key for DCO object type [2] for rule: [2]

08:59:46.214 (0)	   Loaded dcomap.close:
08:59:46.214 (0)	   Looked up map for current dco: dco tag:[B]; dco type:[ProfilerCCCD]; base:[];
did not match [B.ProfilerCCCD]
did not match [.ProfilerCCCD]
looked up DCO object type map
map for DCO object type [0] is blank
*(star) was not specified
did not find matches
08:59:46.214 (0)	   execute statement On Ruleset Start
08:59:46.214 (0)	      executing code:
08:59:46.214 (0)	      Call OnRuleSetStart()
08:59:46.217 (0)	 OnRuleSetStart Pilot XML:
<B id="20220414.000001"><P n="BatchDir">C:\Datacap\ProfilerCCCD\batches\20220414.000001</P><P n="AppName"></P><P n="Workflow"></P><P n="DCOFile">C:\Datacap\ProfilerCCCD\batches\20220414.000001\PageID.xml</P><P n="Operator">admin</P><P n="Station">1</P><P n="JobName">ClaimFrom Job</P><P n="TaskName">PageID</P><P n="Priority">5</P><P n="PagesInBatch">0</P><P n="DocsInBatch">0</P><P n="ExpectedPages">0</P><P n="ExpectedDocs">0</P><P n="AdjustedPages">0</P><P n="AdjustedDocs">0</P><P n="ProjectPath">C:\Datacap\ProfilerCCCD\dco_ProfilerCCCD\Paths.ini</P><V n="HR_LOCALE">vi-VN</V></B>


08:59:46.217 (0)	   /execute statement On Ruleset Start
08:59:46.217 (0)	   ruleset name="CreateDocs&Fields" id="3" target object="B" target id="20220414.000001" target type="ProfilerCCCD"
08:59:46.217 (0)	   dco open tag="B" id="20220414.000001" type="ProfilerCCCD" progress="0"
08:59:46.218 (0)	      Looked up map for current dco: dco tag:[B]; dco type:[ProfilerCCCD]; base:[];
did not match [B.ProfilerCCCD]
did not match [.ProfilerCCCD]
looked up DCO object type map
matched DCO object type[0] to rule [1]

08:59:46.218 (0)	      rule "(B) Open"
08:59:46.218 (0)	         result 0[x0] = true
08:59:46.291 (78)	         execute statement On Rule Start
08:59:46.291 (0)	            executing code:
08:59:46.291 (0)	            Call OnRuleStart()
08:59:46.291 (0)	 InitPage
08:59:46.291 (0)	         /execute statement On Rule Start
08:59:46.291 (0)	         func "Create Docs"
08:59:46.291 (0)	            execute statement On Function Start
08:59:46.291 (0)	               executing code:
08:59:46.291 (0)	               g_Ftmr=cdbl(Timer)
08:59:46.291 (0)	            /execute statement On Function Start
08:59:46.291 (0)	            calling action CreateDocuments () on B:20220414.000001
08:59:46.291 (0)	               execute statement On Action Start
08:59:46.291 (0)	                  executing code:
08:59:46.291 (0)	                  Call OnActionStart()
08:59:46.292 (0)	 Current Locale: '1033 (en-US)' English (United States)
08:59:46.292 (0)	               /execute statement On Action Start
08:59:46.292 (0)	               call "Datacap.Libraries.ApplicationObjects.Actions->Datacap.Libraries.ApplicationObjects.Actions->CreateDocuments"
08:59:46.317 (32)	Success Num of Children: 1
08:59:46.317 (0)	                  result 0[x0] = true
08:59:46.317 (0)	               /call
08:59:46.317 (0)	               action returned true
08:59:46.317 (0)	               execute statement On Action True
08:59:46.317 (0)	                  executing code:
08:59:46.317 (0)	                  Call OnActionSuccess()
08:59:46.318 (0)	 Action esec='0.02539'
08:59:46.318 (0)	               /execute statement On Action True
08:59:46.318 (0)	            /action
08:59:46.318 (0)	            func result: "true"
08:59:46.318 (0)	            execute statement On Function True
08:59:46.318 (0)	               executing code:
08:59:46.318 (0)	               Call OnFunctionEnd()
08:59:46.318 (0)	 Function esec='0.02734'
08:59:46.319 (0)	            /execute statement On Function True
08:59:46.319 (0)	         /func
08:59:46.319 (0)	         execute statement On Rule True
08:59:46.319 (0)	            executing code:
08:59:46.319 (0)	            Call StatCounter():Call OnRuleEnd():Call RRLogicOnRuleEnd()
08:59:46.319 (0)	 DocCount 0,  PageCount 1
08:59:46.320 (0)	 rrRuleEnd OVERRIDEABLE:True
08:59:46.320 (0)	 Rule esec='0.02734'
08:59:46.446 (125)	nDefaultRtn default: 1
08:59:46.447 (0)	cOnRuleEnd: OVERRIDEABLE:True
08:59:46.447 (0)	         /execute statement On Rule True
08:59:46.447 (0)	         execute statement Set CurrentObj to Nothing
08:59:46.447 (0)	            executing code:
08:59:46.447 (0)	            Call set_CDCOnothing()
08:59:46.447 (0)	         /execute statement Set CurrentObj to Nothing
08:59:46.448 (0)	         rule result: "true"
08:59:46.448 (0)	      /rule
08:59:46.448 (0)	   /dco
08:59:46.448 (0)	   dco open tag="D" id="20220414.000001.01" type="Insurance Docs" progress="0"
08:59:46.448 (0)	      Looked up map for current dco: dco tag:[D]; dco type:[Insurance Docs]; base:[];
did not match [D.Insurance Docs]
did not match [.Insurance Docs]
looked up DCO object type map
map for DCO object type [1] is blank
*(star) was not specified
did not find matches
08:59:46.448 (0)	      skip: current DCO has no associated rules from this ruleset
08:59:46.448 (0)	   /dco
08:59:46.448 (0)	   dco open tag="P" id="TM000001" type="Claim Page" progress="0"
08:59:46.448 (0)	      Looked up map for current dco: dco tag:[P]; dco type:[Claim Page]; base:[];
did not match [P.Claim Page]
did not match [.Claim Page]
looked up DCO object type map
matched DCO object type[2] to rule [2]

08:59:46.448 (0)	      rule "(P) Open"
08:59:46.448 (0)	         result 0[x0] = true
08:59:46.525 (78)	         execute statement On Rule Start
08:59:46.525 (0)	            executing code:
08:59:46.525 (0)	            Call OnRuleStart()
08:59:46.525 (0)	 InitPage
08:59:46.527 (0)	         /execute statement On Rule Start
08:59:46.527 (0)	         func "Create Fields"
08:59:46.527 (0)	            execute statement On Function Start
08:59:46.527 (0)	               executing code:
08:59:46.527 (0)	               g_Ftmr=cdbl(Timer)
08:59:46.527 (0)	            /execute statement On Function Start
08:59:46.527 (0)	            calling action CreateFields () on P:TM000001
08:59:46.527 (0)	               execute statement On Action Start
08:59:46.527 (0)	                  executing code:
08:59:46.527 (0)	                  Call OnActionStart()
08:59:46.528 (0)	 Current Locale: '1033 (en-US)' English (United States)
08:59:46.528 (0)	               /execute statement On Action Start
08:59:46.528 (0)	               call "Datacap.Libraries.ApplicationObjects.Actions->Datacap.Libraries.ApplicationObjects.Actions->CreateFields"
08:59:46.532 (0)	Creating fields for ID: 'TM000001' Level: 2
08:59:46.533 (0)	Success Num of Children: 8
08:59:46.533 (0)	                  result 0[x0] = true
08:59:46.533 (0)	               /call
08:59:46.533 (0)	               action returned true
08:59:46.533 (0)	               execute statement On Action True
08:59:46.533 (0)	                  executing code:
08:59:46.533 (0)	                  Call OnActionSuccess()
08:59:46.533 (0)	 Action esec='0.00391'
08:59:46.533 (0)	               /execute statement On Action True
08:59:46.534 (0)	            /action
08:59:46.534 (0)	            func result: "true"
08:59:46.534 (0)	            execute statement On Function True
08:59:46.534 (0)	               executing code:
08:59:46.534 (0)	               Call OnFunctionEnd()
08:59:46.534 (0)	 Function esec='0.00781'
08:59:46.534 (0)	            /execute statement On Function True
08:59:46.534 (0)	         /func
08:59:46.534 (0)	         execute statement On Rule True
08:59:46.534 (0)	            executing code:
08:59:46.534 (0)	            Call StatCounter():Call OnRuleEnd():Call RRLogicOnRuleEnd()
08:59:46.534 (0)	 DocCount 1,  PageCount 1
08:59:46.535 (0)	 rrRuleEnd OVERRIDEABLE:True
08:59:46.535 (0)	 Rule esec='0.00977'
08:59:46.547 (15)	nDefaultRtn default: 1
08:59:46.547 (0)	cOnRuleEnd: OVERRIDEABLE:True
08:59:46.548 (0)	         /execute statement On Rule True
08:59:46.548 (0)	         execute statement Set CurrentObj to Nothing
08:59:46.548 (0)	            executing code:
08:59:46.548 (0)	            Call set_CDCOnothing()
08:59:46.549 (0)	         /execute statement Set CurrentObj to Nothing
08:59:46.549 (0)	         rule result: "true"
08:59:46.549 (0)	      /rule
08:59:46.549 (0)	   /dco
08:59:46.549 (0)	   dco open tag="F" id="HoTen" type="HoTen" progress="0"
08:59:46.549 (0)	      Looked up map for current dco: dco tag:[F]; dco type:[HoTen]; base:[];
did not match [F.HoTen]
did not match [.HoTen]
looked up DCO object type map
map for DCO object type [3] is blank
*(star) was not specified
did not find matches
08:59:46.549 (0)	      skip: current DCO has no associated rules from this ruleset
08:59:46.549 (0)	   /dco
08:59:46.549 (0)	   dco close tag="F" id="HoTen" type="HoTen" progress="2"
08:59:46.550 (0)	      Looked up map for current dco: dco tag:[F]; dco type:[HoTen]; base:[];
did not match [F.HoTen]
did not match [.HoTen]
looked up DCO object type map
map for DCO object type [3] is blank
*(star) was not specified
did not find matches
08:59:46.550 (0)	      skip: current DCO has no associated rules from this ruleset
08:59:46.550 (0)	   /dco
08:59:46.550 (0)	   dco open tag="F" id="SoCmt" type="SoCmt" progress="0"
08:59:46.550 (0)	      Looked up map for current dco: dco tag:[F]; dco type:[SoCmt]; base:[];
did not match [F.SoCmt]
did not match [.SoCmt]
looked up DCO object type map
map for DCO object type [3] is blank
*(star) was not specified
did not find matches
08:59:46.550 (0)	      skip: current DCO has no associated rules from this ruleset
08:59:46.550 (0)	   /dco
08:59:46.550 (0)	   dco close tag="F" id="SoCmt" type="SoCmt" progress="2"
08:59:46.550 (0)	      Looked up map for current dco: dco tag:[F]; dco type:[SoCmt]; base:[];
did not match [F.SoCmt]
did not match [.SoCmt]
looked up DCO object type map
map for DCO object type [3] is blank
*(star) was not specified
did not find matches
08:59:46.550 (0)	      skip: current DCO has no associated rules from this ruleset
08:59:46.550 (0)	   /dco
08:59:46.550 (0)	   dco open tag="F" id="Gioitinh" type="Gioitinh" progress="0"
08:59:46.550 (0)	      Looked up map for current dco: dco tag:[F]; dco type:[Gioitinh]; base:[];
did not match [F.Gioitinh]
did not match [.Gioitinh]
looked up DCO object type map
map for DCO object type [3] is blank
*(star) was not specified
did not find matches
08:59:46.550 (0)	      skip: current DCO has no associated rules from this ruleset
08:59:46.551 (0)	   /dco
08:59:46.551 (0)	   dco close tag="F" id="Gioitinh" type="Gioitinh" progress="2"
08:59:46.551 (0)	      Looked up map for current dco: dco tag:[F]; dco type:[Gioitinh]; base:[];
did not match [F.Gioitinh]
did not match [.Gioitinh]
looked up DCO object type map
map for DCO object type [3] is blank
*(star) was not specified
did not find matches
08:59:46.551 (0)	      skip: current DCO has no associated rules from this ruleset
08:59:46.551 (0)	   /dco
08:59:46.551 (0)	   dco open tag="F" id="Quoctich" type="Quoctich" progress="0"
08:59:46.551 (0)	      Looked up map for current dco: dco tag:[F]; dco type:[Quoctich]; base:[];
did not match [F.Quoctich]
did not match [.Quoctich]
looked up DCO object type map
map for DCO object type [3] is blank
*(star) was not specified
did not find matches
08:59:46.551 (0)	      skip: current DCO has no associated rules from this ruleset
08:59:46.551 (0)	   /dco
08:59:46.551 (0)	   dco close tag="F" id="Quoctich" type="Quoctich" progress="2"
08:59:46.551 (0)	      Looked up map for current dco: dco tag:[F]; dco type:[Quoctich]; base:[];
did not match [F.Quoctich]
did not match [.Quoctich]
looked up DCO object type map
map for DCO object type [3] is blank
*(star) was not specified
did not find matches
08:59:46.551 (0)	      skip: current DCO has no associated rules from this ruleset
08:59:46.551 (0)	   /dco
08:59:46.552 (16)	   dco open tag="F" id="Ngaysinh" type="Ngaysinh" progress="0"
08:59:46.552 (0)	      Looked up map for current dco: dco tag:[F]; dco type:[Ngaysinh]; base:[];
did not match [F.Ngaysinh]
did not match [.Ngaysinh]
looked up DCO object type map
map for DCO object type [3] is blank
*(star) was not specified
did not find matches
08:59:46.552 (0)	      skip: current DCO has no associated rules from this ruleset
08:59:46.552 (0)	   /dco
08:59:46.552 (0)	   dco close tag="F" id="Ngaysinh" type="Ngaysinh" progress="2"
08:59:46.552 (0)	      Looked up map for current dco: dco tag:[F]; dco type:[Ngaysinh]; base:[];
did not match [F.Ngaysinh]
did not match [.Ngaysinh]
looked up DCO object type map
map for DCO object type [3] is blank
*(star) was not specified
did not find matches
08:59:46.552 (0)	      skip: current DCO has no associated rules from this ruleset
08:59:46.552 (0)	   /dco
08:59:46.552 (0)	   dco open tag="F" id="Quequan" type="Quequan" progress="0"
08:59:46.552 (0)	      Looked up map for current dco: dco tag:[F]; dco type:[Quequan]; base:[];
did not match [F.Quequan]
did not match [.Quequan]
looked up DCO object type map
map for DCO object type [3] is blank
*(star) was not specified
did not find matches
08:59:46.552 (0)	      skip: current DCO has no associated rules from this ruleset
08:59:46.552 (0)	   /dco
08:59:46.552 (0)	   dco close tag="F" id="Quequan" type="Quequan" progress="2"
08:59:46.552 (0)	      Looked up map for current dco: dco tag:[F]; dco type:[Quequan]; base:[];
did not match [F.Quequan]
did not match [.Quequan]
looked up DCO object type map
map for DCO object type [3] is blank
*(star) was not specified
did not find matches
08:59:46.552 (0)	      skip: current DCO has no associated rules from this ruleset
08:59:46.553 (0)	   /dco
08:59:46.553 (0)	   dco open tag="F" id="Thoihan" type="Thoihan" progress="0"
08:59:46.553 (0)	      Looked up map for current dco: dco tag:[F]; dco type:[Thoihan]; base:[];
did not match [F.Thoihan]
did not match [.Thoihan]
looked up DCO object type map
map for DCO object type [3] is blank
*(star) was not specified
did not find matches
08:59:46.553 (0)	      skip: current DCO has no associated rules from this ruleset
08:59:46.553 (0)	   /dco
08:59:46.553 (0)	   dco close tag="F" id="Thoihan" type="Thoihan" progress="2"
08:59:46.553 (0)	      Looked up map for current dco: dco tag:[F]; dco type:[Thoihan]; base:[];
did not match [F.Thoihan]
did not match [.Thoihan]
looked up DCO object type map
map for DCO object type [3] is blank
*(star) was not specified
did not find matches
08:59:46.553 (0)	      skip: current DCO has no associated rules from this ruleset
08:59:46.553 (0)	   /dco
08:59:46.553 (0)	   dco open tag="F" id="Noithuongtru" type="Noithuongtru" progress="0"
08:59:46.553 (0)	      Looked up map for current dco: dco tag:[F]; dco type:[Noithuongtru]; base:[];
did not match [F.Noithuongtru]
did not match [.Noithuongtru]
looked up DCO object type map
map for DCO object type [3] is blank
*(star) was not specified
did not find matches
08:59:46.553 (0)	      skip: current DCO has no associated rules from this ruleset
08:59:46.553 (0)	   /dco
08:59:46.553 (0)	   dco close tag="F" id="Noithuongtru" type="Noithuongtru" progress="2"
08:59:46.554 (0)	      Looked up map for current dco: dco tag:[F]; dco type:[Noithuongtru]; base:[];
did not match [F.Noithuongtru]
did not match [.Noithuongtru]
looked up DCO object type map
map for DCO object type [3] is blank
*(star) was not specified
did not find matches
08:59:46.554 (0)	      skip: current DCO has no associated rules from this ruleset
08:59:46.554 (0)	   /dco
08:59:46.554 (0)	   dco close tag="P" id="TM000001" type="Claim Page" progress="2"
08:59:46.554 (0)	      Looked up map for current dco: dco tag:[P]; dco type:[Claim Page]; base:[];
did not match [P.Claim Page]
did not match [.Claim Page]
looked up DCO object type map
map for DCO object type [2] is blank
*(star) was not specified
did not find matches
08:59:46.554 (0)	      skip: current DCO has no associated rules from this ruleset
08:59:46.554 (0)	   /dco
08:59:46.554 (0)	   dco close tag="D" id="20220414.000001.01" type="Insurance Docs" progress="2"
08:59:46.554 (0)	      Looked up map for current dco: dco tag:[D]; dco type:[Insurance Docs]; base:[];
did not match [D.Insurance Docs]
did not match [.Insurance Docs]
looked up DCO object type map
map for DCO object type [1] is blank
*(star) was not specified
did not find matches
08:59:46.554 (0)	      skip: current DCO has no associated rules from this ruleset
08:59:46.554 (0)	   /dco
08:59:46.555 (0)	   dco close tag="B" id="20220414.000001" type="ProfilerCCCD" progress="2"
08:59:46.555 (0)	      Looked up map for current dco: dco tag:[B]; dco type:[ProfilerCCCD]; base:[];
did not match [B.ProfilerCCCD]
did not match [.ProfilerCCCD]
looked up DCO object type map
map for DCO object type [0] is blank
*(star) was not specified
did not find matches
08:59:46.555 (0)	      skip: current DCO has no associated rules from this ruleset
08:59:46.555 (0)	   /dco
08:59:46.555 (0)	   stop: finished for target
08:59:46.555 (0)	   execute statement On Ruleset End
08:59:46.555 (0)	      executing code:
08:59:46.555 (0)	      Call OnRuleSetEnd()
08:59:46.556 (0)	 RuleSet finished with TaskStatus '2'
08:59:46.556 (0)	 Total Ruleset Action   esec:'0.02930'
08:59:46.556 (0)	 Total Ruleset Function esec:'0.03516'
08:59:46.556 (0)	 Total Ruleset Rule     esec:'0.03711'
08:59:46.556 (0)	 Total Profile Action   esec:'12.94141'
08:59:46.556 (0)	 Total Profile Function esec:'12.96680'
08:59:46.556 (0)	 Total Profile Rule     esec:'12.97461'
08:59:46.557 (0)	 OnRuleSetEnd Pilot XML:
<B id="20220414.000001"><P n="BatchDir">C:\Datacap\ProfilerCCCD\batches\20220414.000001</P><P n="AppName"></P><P n="Workflow"></P><P n="DCOFile">C:\Datacap\ProfilerCCCD\batches\20220414.000001\PageID.xml</P><P n="Operator">admin</P><P n="Station">1</P><P n="JobName">ClaimFrom Job</P><P n="TaskName">PageID</P><P n="Priority">5</P><P n="PagesInBatch">0</P><P n="DocsInBatch">0</P><P n="ExpectedPages">0</P><P n="ExpectedDocs">0</P><P n="AdjustedPages">0</P><P n="AdjustedDocs">0</P><P n="ProjectPath">C:\Datacap\ProfilerCCCD\dco_ProfilerCCCD\Paths.ini</P><V n="HR_LOCALE">vi-VN</V></B>


08:59:46.591 (31)	   /execute statement On Ruleset End
08:59:46.591 (0)	/ruleset
08:59:46.591 (0)	CIMainAlgorithm::Execute::finalize_after_process:
08:59:46.591 (0)	execute statement On Process End
08:59:46.591 (0)	   executing code:
08:59:46.591 (0)	   Quit()
08:59:46.630 (47)	/execute statement On Process End
08:59:46.630 (0)	CIMainAlgorithm::Execute::finalize_after_process:SaveDCO:
08:59:46.699 (63)	unload script [m0x="ac3cd94"]
08:59:46.699 (0)	   execute statement (null)
08:59:46.699 (0)	      executing code:
08:59:46.699 (0)	      Call set_CDCOnothing()
08:59:46.699 (0)	   /execute statement (null)
08:59:46.702 (0)	   script released
08:59:46.702 (0)	/unload
08:59:46.702 (0)	unload COM m0x="ac3cd64">
08:59:47.647 (953)	/unload
08:59:47.647 (0)	C:\Datacap\RRS\Logs\wrrs
08:59:47.647 (0)	end log to batch
